^C:\USERS\משתמש\SOURCE\REPOS\MAGSHIMIML6\PART-2\DEBUG\CIRCLE.OBJ|C:\USERS\משתמש\SOURCE\REPOS\MAGSHIMIML6\PART-2\DEBUG\MAIN.OBJ|C:\USERS\משתמש\SOURCE\REPOS\MAGSHIMIML6\PART-2\DEBUG\PARALLELOGRAM.OBJ|C:\USERS\משתמש\SOURCE\REPOS\MAGSHIMIML6\PART-2\DEBUG\QUADRILATERAL.OBJ|C:\USERS\משתמש\SOURCE\REPOS\MAGSHIMIML6\PART-2\DEBUG\RECTANGLE.OBJ|C:\USERS\משתמש\SOURCE\REPOS\MAGSHIMIML6\PART-2\DEBUG\SHAPE.OBJ
C:\USERS\משתמש\SOURCE\REPOS\MAGSHIMIML6\DEBUG\PART-2.EXE
C:\USERS\משתמש\SOURCE\REPOS\MAGSHIMIML6\DEBUG\PART-2.ILK
C:\USERS\משתמש\SOURCE\REPOS\MAGSHIMIML6\DEBUG\PART-2.PDB
